
#include<stdio.h>
#define SIZE 5
int main(void)
{
int i;
char str[SIZE];
printf("Enter the string : ");
scanf("%s",&str);
printf("Reverse of given String is : ");
for(i=SIZE-1;i>=0;i--)
{
    printf("%c",str[i]);
}
    return 0;
}

